%YAML 1.1
%TAG !u! tag:unity3d.com,2011:
--- !u!74 &7400000
AnimationClip:
  m_ObjectHideFlags: 0
  m_CorrespondingSourceObject: {fileID: 0}
  m_PrefabInstance: {fileID: 0}
  m_PrefabAsset: {fileID: 0}
  m_Name: ns1
  serializedVersion: 7
  m_Legacy: 0
  m_Compressed: 0
  m_UseHighQualityCurve: 1
  m_RotationCurves: []
  m_CompressedRotationCurves: []
  m_EulerCurves: []
  m_PositionCurves: []
  m_ScaleCurves: []
  m_FloatCurves: []
  m_PPtrCurves:
  - serializedVersion: 2
    curve:
    - time: 0
      value: {fileID: 8721627742758445659, guid: 77a2066caa8ce9a44a91e5da2e5dc418, type: 3}
    - time: 0.05
      value: {fileID: 2572783395917612463, guid: 77a2066caa8ce9a44a91e5da2e5dc418, type: 3}
    - time: 0.1
      value: {fileID: -4092954940857973242, guid: 77a2066caa8ce9a44a91e5da2e5dc418, type: 3}
    - time: 0.13333334
      value: {fileID: -1950231545907488046, guid: 77a2066caa8ce9a44a91e5da2e5dc418, type: 3}
    - time: 0.18333334
      value: {fileID: -1552260398345534625, guid: 77a2066caa8ce9a44a91e5da2e5dc418, type: 3}
    - time: 0.23333333
      value: {fileID: 5216340370304127621, guid: 77a2066caa8ce9a44a91e5da2e5dc418, type: 3}
    - time: 0.28333333
      value: {fileID: 6750776882291925480, guid: 77a2066caa8ce9a44a91e5da2e5dc418, type: 3}
    - time: 0.31666666
      value: {fileID: 8005106052057403831, guid: 77a2066caa8ce9a44a91e5da2e5dc418, type: 3}
    - time: 0.36666667
      value: {fileID: -366465986653309516, guid: 77a2066caa8ce9a44a91e5da2e5dc418, type: 3}
    - time: 0.41666666
      value: {fileID: 1641286782638749208, guid: 77a2066caa8ce9a44a91e5da2e5dc418, type: 3}
    - time: 0.46666667
      value: {fileID: 7645863035334836320, guid: 77a2066caa8ce9a44a91e5da2e5dc418, type: 3}
    - time: 0.51666665
      value: {fileID: -2442301919481481581, guid: 77a2066caa8ce9a44a91e5da2e5dc418, type: 3}
    - time: 0.55
      value: {fileID: -2864787394324369293, guid: 77a2066caa8ce9a44a91e5da2e5dc418, type: 3}
    - time: 0.6
      value: {fileID: 8813784198000241243, guid: 77a2066caa8ce9a44a91e5da2e5dc418, type: 3}
    - time: 0.65
      value: {fileID: -7073400108112182612, guid: 77a2066caa8ce9a44a91e5da2e5dc418, type: 3}
    - time: 0.7
      value: {fileID: 1618409309354148212, guid: 77a2066caa8ce9a44a91e5da2e5dc418, type: 3}
    - time: 0.73333335
      value: {fileID: -8720206902049520585, guid: 77a2066caa8ce9a44a91e5da2e5dc418, type: 3}
    - time: 0.78333336
      value: {fileID: -7830724639947329172, guid: 77a2066caa8ce9a44a91e5da2e5dc418, type: 3}
    - time: 0.8333333
      value: {fileID: 8944895823232146823, guid: 77a2066caa8ce9a44a91e5da2e5dc418, type: 3}
    attribute: m_Sprite
    path: 
    classID: 212
    script: {fileID: 0}
    flags: 2
  m_SampleRate: 60
  m_WrapMode: 0
  m_Bounds:
    m_Center: {x: 0, y: 0, z: 0}
    m_Extent: {x: 0, y: 0, z: 0}
  m_ClipBindingConstant:
    genericBindings:
    - serializedVersion: 2
      path: 0
      attribute: 0
      script: {fileID: 0}
      typeID: 212
      customType: 23
      isPPtrCurve: 1
      isIntCurve: 0
      isSerializeReferenceCurve: 0
    pptrCurveMapping:
    - {fileID: 8721627742758445659, guid: 77a2066caa8ce9a44a91e5da2e5dc418, type: 3}
    - {fileID: 2572783395917612463, guid: 77a2066caa8ce9a44a91e5da2e5dc418, type: 3}
    - {fileID: -4092954940857973242, guid: 77a2066caa8ce9a44a91e5da2e5dc418, type: 3}
    - {fileID: -1950231545907488046, guid: 77a2066caa8ce9a44a91e5da2e5dc418, type: 3}
    - {fileID: -1552260398345534625, guid: 77a2066caa8ce9a44a91e5da2e5dc418, type: 3}
    - {fileID: 5216340370304127621, guid: 77a2066caa8ce9a44a91e5da2e5dc418, type: 3}
    - {fileID: 6750776882291925480, guid: 77a2066caa8ce9a44a91e5da2e5dc418, type: 3}
    - {fileID: 8005106052057403831, guid: 77a2066caa8ce9a44a91e5da2e5dc418, type: 3}
    - {fileID: -366465986653309516, guid: 77a2066caa8ce9a44a91e5da2e5dc418, type: 3}
    - {fileID: 1641286782638749208, guid: 77a2066caa8ce9a44a91e5da2e5dc418, type: 3}
    - {fileID: 7645863035334836320, guid: 77a2066caa8ce9a44a91e5da2e5dc418, type: 3}
    - {fileID: -2442301919481481581, guid: 77a2066caa8ce9a44a91e5da2e5dc418, type: 3}
    - {fileID: -2864787394324369293, guid: 77a2066caa8ce9a44a91e5da2e5dc418, type: 3}
    - {fileID: 8813784198000241243, guid: 77a2066caa8ce9a44a91e5da2e5dc418, type: 3}
    - {fileID: -7073400108112182612, guid: 77a2066caa8ce9a44a91e5da2e5dc418, type: 3}
    - {fileID: 1618409309354148212, guid: 77a2066caa8ce9a44a91e5da2e5dc418, type: 3}
    - {fileID: -8720206902049520585, guid: 77a2066caa8ce9a44a91e5da2e5dc418, type: 3}
    - {fileID: -7830724639947329172, guid: 77a2066caa8ce9a44a91e5da2e5dc418, type: 3}
    - {fileID: 8944895823232146823, guid: 77a2066caa8ce9a44a91e5da2e5dc418, type: 3}
  m_AnimationClipSettings:
    serializedVersion: 2
    m_AdditiveReferencePoseClip: {fileID: 0}
    m_AdditiveReferencePoseTime: 0
    m_StartTime: 0
    m_StopTime: 0.84999996
    m_OrientationOffsetY: 0
    m_Level: 0
    m_CycleOffset: 0
    m_HasAdditiveReferencePose: 0
    m_LoopTime: 0
    m_LoopBlend: 0
    m_LoopBlendOrientation: 0
    m_LoopBlendPositionY: 0
    m_LoopBlendPositionXZ: 0
    m_KeepOriginalOrientation: 0
    m_KeepOriginalPositionY: 1
    m_KeepOriginalPositionXZ: 0
    m_HeightFromFeet: 0
    m_Mirror: 0
  m_EditorCurves: []
  m_EulerEditorCurves: []
  m_HasGenericRootTransform: 0
  m_HasMotionFloatCurves: 0
  m_Events: []
