%YAML 1.1
%TAG !u! tag:unity3d.com,2011:
--- !u!162 &1
EditorUserSettings:
  m_ObjectHideFlags: 0
  serializedVersion: 4
  m_ConfigSettings:
    RecentlyUsedSceneGuid-0:
      value: 53095053530d505e5b5c547313715d4447164d2c742a7134792b4a6ae6e2643a
      flags: 0
    RecentlyUsedSceneGuid-1:
      value: 020856515503585959595e27427b5b44141548292f7e24347a2f186be3b1313e
      flags: 0
    RecentlyUsedSceneGuid-2:
      value: 05010d0052570c0c595b0a73437b08444f4e1d79287172617d7a1865e0b9636c
      flags: 0
    RecentlyUsedSceneGuid-3:
      value: 515250075c0c595e5f5a5e71122159444e4e4a2f7a7d7f602f284d66b4b76661
      flags: 0
    RecentlyUsedSceneGuid-4:
      value: 51065751555750085f5b5b7049750f4442164078297a206728704530e3b3673c
      flags: 0
    RecentlyUsedSceneGuid-5:
      value: 56520c5504570d080b5b0a7743710b4441161d282d7175367d7b4531b7b86568
      flags: 0
    vcSharedLogLevel:
      value: 0d5e400f0650
      flags: 0
  m_VCAutomaticAdd: 1
  m_VCDebugCom: 0
  m_VCDebugCmd: 0
  m_VCDebugOut: 0
  m_SemanticMergeMode: 2
  m_DesiredImportWorkerCount: 6
  m_StandbyImportWorkerCount: 2
  m_IdleImportWorkerShutdownDelay: 60000
  m_VCShowFailedCheckout: 1
  m_VCOverwriteFailedCheckoutAssets: 1
  m_VCProjectOverlayIcons: 1
  m_VCHierarchyOverlayIcons: 1
  m_VCOtherOverlayIcons: 1
  m_VCAllowAsyncUpdate: 1
  m_ArtifactGarbageCollection: 1
